<?xml version="1.0" encoding="UTF-8" standalone="no"?>
<!-- Created with Inkscape (http://www.inkscape.org/) -->

<svg
   xmlns:dc="http://purl.org/dc/elements/1.1/"
   xmlns:cc="http://creativecommons.org/ns#"
   xmlns:rdf="http://www.w3.org/1999/02/22-rdf-syntax-ns#"
   xmlns:svg="http://www.w3.org/2000/svg"
   xmlns="http://www.w3.org/2000/svg"
   xmlns:sodipodi="http://sodipodi.sourceforge.net/DTD/sodipodi-0.dtd"
   xmlns:inkscape="http://www.inkscape.org/namespaces/inkscape"
   width="256"
   height="256"
   viewBox="0 0 67.733332 67.733335"
   version="1.1"
   id="svg41"
   inkscape:version="0.92.4 5da689c313, 2019-01-14"
   sodipodi:docname="1D80D Full.svg">
  <defs
     id="defs35" />
  <sodipodi:namedview
     id="base"
     pagecolor="#ffffff"
     bordercolor="#666666"
     borderopacity="1.0"
     inkscape:pageopacity="0.0"
     inkscape:pageshadow="2"
     inkscape:zoom="8"
     inkscape:cx="151.86333"
     inkscape:cy="151.70627"
     inkscape:document-units="px"
     inkscape:current-layer="layer1"
     showgrid="false"
     units="px"
     inkscape:window-width="840"
     inkscape:window-height="985"
     inkscape:window-x="840"
     inkscape:window-y="0"
     inkscape:window-maximized="0" />
  <metadata
     id="metadata38">
    <rdf:RDF>
      <cc:Work
         rdf:about="">
        <dc:format>image/svg+xml</dc:format>
        <dc:type
           rdf:resource="http://purl.org/dc/dcmitype/StillImage" />
        <dc:title></dc:title>
      </cc:Work>
    </rdf:RDF>
  </metadata>
  <g
     inkscape:label="Layer 1"
     inkscape:groupmode="layer"
     id="layer1"
     transform="translate(0,-229.26666)">
    <path
       style="fill:none;stroke:#000000;stroke-width:0.26458332px;stroke-linecap:butt;stroke-linejoin:miter;stroke-opacity:1"
       d="m 25.06927,253.01301 c -8.784082,1.67067 -13.73692,7.49818 -13.16302,12.76615 1.463119,13.43035 10.784368,13.8406 13.427604,14.22136 4.58569,0.66057 13.572983,-0.73244 15.808854,-12.23699 1.268212,-6.52551 -3.829925,-17.07914 -16.073438,-14.75052 z"
       id="path47"
       inkscape:connector-curvature="0"
       sodipodi:nodetypes="sssss" />
    <path
       style="fill:none;stroke:#000000;stroke-width:0.26458332px;stroke-linecap:butt;stroke-linejoin:miter;stroke-opacity:1"
       d="m 18.895955,257.33719 c 2.34694,-1.81149 4.829489,-2.4025 7.296458,-3.13373 -5.49349,2.98701 -8.433654,5.33569 -11.505953,7.71741 5.93995,-3.00458 11.949394,-6.11656 16.557347,-7.0626 -6.190745,3.29924 -12.422456,6.60668 -16.791207,9.54152 7.268476,-2.78641 16.143539,-6.96034 20.953931,-7.62386 -8.091619,4.09182 -15.43196,7.96553 -19.691083,10.94469 7.888633,-3.16464 16.04132,-6.59334 21.889373,-7.71741 -7.294617,3.85353 -18.254108,7.81176 -21.60874,11.55272 0.297738,-0.51041 24.79101,-9.7784 23.292538,-7.39 -0.427864,-0.20078 -21.805914,9.05952 -20.673297,10.66406 7.032288,-2.52843 14.128204,-6.39303 21.047476,-6.54811 -6.982642,3.01538 -13.854319,6.06363 -17.539563,10.05602 5.400653,-1.56925 11.793926,-3.83702 14.031651,-3.18051 -1.573301,0.72 -4.653746,1.84703 -5.706205,3.27405"
       id="path51"
       inkscape:connector-curvature="0"
       sodipodi:nodetypes="ccccccccccccccc" />
    <path
       style="fill:none;stroke:#000000;stroke-width:0.26458332px;stroke-linecap:round;stroke-linejoin:miter;stroke-opacity:1"
       d="m 41.073832,263.22524 c 0.223907,-0.72564 -0.664905,-13.84921 0.247247,-14.99215 2.420506,0.14376 1.6201,-3.27057 1.333794,-3.4634 -1.420458,-0.95664 -3.695004,-0.85626 -4.236082,0.6343 -0.513911,1.41572 1.795041,2.89228 2.902288,2.8291"
       id="path12"
       inkscape:connector-curvature="0"
       sodipodi:nodetypes="ccssc" />
    <path
       style="fill:none;stroke:#000000;stroke-width:0.26458332px;stroke-linecap:butt;stroke-linejoin:miter;stroke-opacity:1"
       d="m 39.106054,245.06862 c 0.523402,-0.33182 1.046805,-0.366 1.570207,-0.49278 -0.708124,0.39318 -1.350078,0.80164 -1.770661,1.26118 0.956623,-0.40319 1.936918,-0.8774 2.831388,-1.09413 -0.04672,-0.14016 -2.52292,1.76061 -2.438836,1.87924 0.03079,-0.0957 3.092318,-1.65433 3.123713,-1.40317 -0.9803,0.63945 -1.810945,1.32166 -2.171565,2.13816 0.779537,-0.45034 1.559073,-1.14518 2.33861,-1.19436 -0.329131,0.44226 -0.6885,0.86435 -0.760048,1.47833"
       id="path13"
       inkscape:connector-curvature="0"
       sodipodi:nodetypes="ccccccccc" />
  </g>
</svg>
