<?xml version="1.0" encoding="UTF-8" standalone="no"?>
<!-- Created with Inkscape (http://www.inkscape.org/) -->

<svg
   xmlns:dc="http://purl.org/dc/elements/1.1/"
   xmlns:cc="http://creativecommons.org/ns#"
   xmlns:rdf="http://www.w3.org/1999/02/22-rdf-syntax-ns#"
   xmlns:svg="http://www.w3.org/2000/svg"
   xmlns="http://www.w3.org/2000/svg"
   xmlns:sodipodi="http://sodipodi.sourceforge.net/DTD/sodipodi-0.dtd"
   xmlns:inkscape="http://www.inkscape.org/namespaces/inkscape"
   width="256"
   height="256"
   viewBox="0 0 67.733332 67.733335"
   version="1.1"
   id="svg8"
   inkscape:version="0.92.4 5da689c313, 2019-01-14"
   sodipodi:docname="1D827 Full.svg">
  <defs
     id="defs2" />
  <sodipodi:namedview
     id="base"
     pagecolor="#ffffff"
     bordercolor="#666666"
     borderopacity="1.0"
     inkscape:pageopacity="0.0"
     inkscape:pageshadow="2"
     inkscape:zoom="2.8"
     inkscape:cx="82.345941"
     inkscape:cy="211.73465"
     inkscape:document-units="px"
     inkscape:current-layer="layer1"
     showgrid="false"
     units="px"
     inkscape:window-width="840"
     inkscape:window-height="985"
     inkscape:window-x="840"
     inkscape:window-y="0"
     inkscape:window-maximized="0" />
  <metadata
     id="metadata5">
    <rdf:RDF>
      <cc:Work
         rdf:about="">
        <dc:format>image/svg+xml</dc:format>
        <dc:type
           rdf:resource="http://purl.org/dc/dcmitype/StillImage" />
        <dc:title></dc:title>
      </cc:Work>
    </rdf:RDF>
  </metadata>
  <g
     inkscape:label="Layer 1"
     inkscape:groupmode="layer"
     id="layer1"
     transform="translate(0,-229.26665)">
    <path
       style="fill:none;stroke:#000000;stroke-width:0.26458332px;stroke-linecap:butt;stroke-linejoin:miter;stroke-opacity:1"
       d="m 17.506154,254.63776 c -1.722492,8.26827 -1.502423,15.63996 -0.935443,22.85155 9.525787,-1.17221 17.254965,-0.71114 24.856064,-0.13364 -1.125482,-7.439 -1.885429,-14.878 -1.069078,-22.317 -7.262278,1.28597 -15.070265,0.38911 -22.851543,-0.40091 z"
       id="path10"
       inkscape:connector-curvature="0"
       sodipodi:nodetypes="ccccc" />
    <path
       style="fill:none;stroke:#000000;stroke-width:0.26458332px;stroke-linecap:butt;stroke-linejoin:miter;stroke-opacity:1"
       d="M 40.357697,255.03867 C 40.163843,247.7382 39.915109,239.91637 40.207213,237.2325"
       id="path12"
       inkscape:connector-curvature="0"
       sodipodi:nodetypes="cc" />
    <path
       style="fill:none;stroke:#000000;stroke-width:0.26458332px;stroke-linecap:butt;stroke-linejoin:miter;stroke-opacity:1"
       d="m 39.383809,255.19187 c -3.551323,-4.94781 -8.931224,-9.38957 -14.995465,-13.5835"
       id="path11"
       inkscape:connector-curvature="0"
       sodipodi:nodetypes="cc" />
    <path
       style="fill:none;stroke:#000000;stroke-width:0.26458332px;stroke-linecap:butt;stroke-linejoin:miter;stroke-opacity:1"
       d="m 33.207949,268.55883 c 2.420505,0.14376 1.620099,-3.27057 1.333793,-3.4634 -1.420458,-0.95664 -3.695004,-0.85626 -4.236082,0.6343 -0.513911,1.41572 1.820098,2.82546 2.902288,2.8291"
       id="path12-3"
       inkscape:connector-curvature="0"
       sodipodi:nodetypes="cssc" />
    <path
       style="fill:none;stroke:#000000;stroke-width:0.26458332px;stroke-linecap:butt;stroke-linejoin:miter;stroke-opacity:1"
       d="m 30.99292,265.39436 c 0.523402,-0.33182 1.046805,-0.366 1.570207,-0.49278 -0.708124,0.39318 -1.350078,0.80164 -1.770661,1.26118 0.956623,-0.40319 1.936918,-0.8774 2.831388,-1.09413 -0.04672,-0.14016 -2.52292,1.76061 -2.438836,1.87924 0.03079,-0.0957 3.092318,-1.65433 3.123713,-1.40317 -0.9803,0.63945 -1.810945,1.32166 -2.171565,2.13816 0.779537,-0.45034 1.559073,-1.14518 2.33861,-1.19436 -0.329131,0.44226 -0.6885,0.86435 -0.760048,1.47833"
       id="path13"
       inkscape:connector-curvature="0"
       sodipodi:nodetypes="ccccccccc" />
    <path
       style="fill:none;stroke:#000000;stroke-width:0.26458332px;stroke-linecap:butt;stroke-linejoin:miter;stroke-opacity:1"
       d="m 17.840241,256.57547 c 1.076282,-0.45307 2.362299,-0.72261 3.942225,-0.73499 -2.062156,1.1863 -3.346562,2.6471 -4.34313,4.20949 2.821769,-1.8003 5.97338,-3.00088 9.488069,-3.54132 -3.498356,1.50499 -6.726129,3.06595 -8.418991,4.94449 4.013602,-1.66208 7.907001,-3.54453 12.428034,-4.27632 -5.358963,1.92027 -8.743929,4.21654 -12.294399,6.48129 5.936854,-2.51719 11.884079,-4.40849 17.639789,-5.67948 -6.419364,2.60554 -12.732118,5.50958 -18.708867,9.35444 3.764169,-1.26972 7.7888,-2.93013 10.891234,-3.20724 -4.511636,1.98729 -7.643329,4.46743 -10.958051,6.88219 3.919794,-1.67637 8.024695,-3.85517 11.358953,-3.94222 -4.462612,2.04423 -7.755017,4.53854 -11.091684,7.01582 4.624594,-2.17638 9.180047,-4.21448 13.277059,-5.3357 -3.919355,1.9824 -7.655926,4.04788 -10.604364,6.4716 5.218027,-2.01927 10.17175,-4.3557 15.969354,-5.67948 -1.896766,1.43595 -3.667265,2.92929 -4.877668,4.67722 2.503036,-1.57835 5.055111,-2.69082 7.683997,-3.0736 -0.863352,1.20693 -1.830754,2.33062 -2.271789,3.8754"
       id="path29"
       inkscape:connector-curvature="0"
       sodipodi:nodetypes="ccccccccccccccccccc" />
    <path
       style="fill:none;stroke:#000000;stroke-width:0.26458332px;stroke-linecap:butt;stroke-linejoin:miter;stroke-opacity:1"
       d="m 32.10575,261.78722 c 1.730234,-1.82787 4.03533,-2.31439 6.280836,-2.93996 -1.834629,1.25347 -3.328037,2.5332 -4.009044,3.87541 1.462162,-0.78795 3.059621,-1.23766 4.877668,-1.1359 -1.076589,1.04304 -2.564508,1.82432 -2.739512,3.4411 1.011507,0.0133 1.942597,0.11849 2.33861,0.83521 -1.187501,0.49037 -2.251727,0.99194 -2.472245,1.57021 1.224985,-0.0668 2.138158,0.17818 2.739514,0.73499"
       id="path31"
       inkscape:connector-curvature="0"
       sodipodi:nodetypes="cccccccc" />
  </g>
</svg>
