<?xml version="1.0" encoding="UTF-8" standalone="no"?>
<!-- Created with Inkscape (http://www.inkscape.org/) -->

<svg
   xmlns:dc="http://purl.org/dc/elements/1.1/"
   xmlns:cc="http://creativecommons.org/ns#"
   xmlns:rdf="http://www.w3.org/1999/02/22-rdf-syntax-ns#"
   xmlns:svg="http://www.w3.org/2000/svg"
   xmlns="http://www.w3.org/2000/svg"
   xmlns:sodipodi="http://sodipodi.sourceforge.net/DTD/sodipodi-0.dtd"
   xmlns:inkscape="http://www.inkscape.org/namespaces/inkscape"
   width="256"
   height="256"
   viewBox="0 0 67.733332 67.733335"
   version="1.1"
   id="svg8"
   inkscape:version="0.92.4 5da689c313, 2019-01-14"
   sodipodi:docname="1D821 Full.svg">
  <defs
     id="defs2" />
  <sodipodi:namedview
     id="base"
     pagecolor="#ffffff"
     bordercolor="#666666"
     borderopacity="1.0"
     inkscape:pageopacity="0.0"
     inkscape:pageshadow="2"
     inkscape:zoom="3.959798"
     inkscape:cx="152.18416"
     inkscape:cy="146.96584"
     inkscape:document-units="px"
     inkscape:current-layer="layer1"
     showgrid="false"
     units="px"
     inkscape:window-width="840"
     inkscape:window-height="985"
     inkscape:window-x="840"
     inkscape:window-y="0"
     inkscape:window-maximized="0" />
  <metadata
     id="metadata5">
    <rdf:RDF>
      <cc:Work
         rdf:about="">
        <dc:format>image/svg+xml</dc:format>
        <dc:type
           rdf:resource="http://purl.org/dc/dcmitype/StillImage" />
        <dc:title></dc:title>
      </cc:Work>
    </rdf:RDF>
  </metadata>
  <g
     inkscape:label="Layer 1"
     inkscape:groupmode="layer"
     id="layer1"
     transform="translate(0,-229.26665)">
    <path
       style="fill:none;stroke:#000000;stroke-width:0.26458332px;stroke-linecap:butt;stroke-linejoin:miter;stroke-opacity:1"
       d="m 17.506154,254.63776 c -1.722492,8.26827 -1.502423,15.63996 -0.935443,22.85155 9.525787,-1.17221 17.254965,-0.71114 24.856064,-0.13364 -1.125482,-7.439 -1.885429,-14.878 -1.069078,-22.317 -7.262278,1.28597 -15.070265,0.38911 -22.851543,-0.40091 z"
       id="path10"
       inkscape:connector-curvature="0"
       sodipodi:nodetypes="ccccc" />
    <path
       style="fill:none;stroke:#000000;stroke-width:0.26458332px;stroke-linecap:butt;stroke-linejoin:miter;stroke-opacity:1"
       d="m 40.357697,255.03867 c -0.518874,-3.84886 -0.283969,-15.99431 0.343881,-16.69799 -0.499577,0.20593 -4.522253,0.7728 -5.446891,-0.46847 -0.327992,0.164 -0.01994,4.66939 0.186058,5.51887"
       id="path12"
       inkscape:connector-curvature="0"
       sodipodi:nodetypes="cccc" />
    <path
       style="fill:none;stroke:#000000;stroke-width:0.26458332px;stroke-linecap:butt;stroke-linejoin:miter;stroke-opacity:1"
       d="m 18.048363,257.029 c -0.595691,-0.88515 4.000621,-1.54306 4.346726,-1.22842 -2.207595,0.663 -2.952022,2.60628 -4.252232,4.06324 3.198114,-1.87282 6.410563,-3.5163 9.732886,-3.40178 -4.364477,1.63277 -8.37854,3.39168 -9.638392,6.14211 5.591464,-2.30049 11.251279,-4.73768 15.497024,-4.34673 -6.87989,2.07887 -12.521609,4.15774 -14.268601,6.23661 6.410017,-1.84678 14.276037,-5.51357 18.42634,-4.53571 -8.781003,2.68046 -16.763784,5.27496 -17.4814,7.08705 5.776224,-0.85769 13.697714,-3.76313 17.008928,-2.26786 -6.90894,1.83858 -15.075337,3.14984 -18.331845,6.52009 7.342563,-1.31477 15.930769,-3.45996 19.371279,-2.17336 -9.417184,1.71706 -14.417194,4.63165 -18.993302,6.47284 5.820068,-0.34827 13.389023,-2.35895 18.426339,-1.70089"
       id="path14"
       inkscape:connector-curvature="0"
       sodipodi:nodetypes="cccccccccccccc" />
    <path
       style="fill:none;stroke:#000000;stroke-width:0.26458332px;stroke-linecap:butt;stroke-linejoin:miter;stroke-opacity:1"
       d="m 27.68033,255.4975 c -0.518874,-3.84886 -0.459119,-21.25969 0.168731,-21.96337 -0.499577,0.20593 -4.502682,1.15077 -5.42732,-0.0905 -0.327992,0.164 -0.06481,4.84617 0.141185,5.69565"
       id="path12-3"
       inkscape:connector-curvature="0"
       sodipodi:nodetypes="cccc" />
    <path
       style="fill:none;stroke:#000000;stroke-width:0.26458332px;stroke-linecap:butt;stroke-linejoin:miter;stroke-opacity:1"
       d="m 40.057019,264.49333 c 4.584606,-0.3912 8.236091,-0.31584 11.567921,-0.0806"
       id="path11"
       inkscape:connector-curvature="0"
       sodipodi:nodetypes="cc" />
  </g>
</svg>
